[
    {
        "ParameterKey": "VpcIdExportName",
        "ParameterValue": "COMPANYNAME-vpc-stack:VPCId"
    },
    {
        "ParameterKey": "EnvironmentParameter",
        "ParameterValue": "development"
    },
    {
        "ParameterKey": "BackendSecurityGroupParameter",
        "ParameterValue": "EU-D-A-PUB"
    },
    {
        "ParameterKey": "TierCode",
        "ParameterValue": "D"
    }
]
